Library\Bee\artifacts\mvdfrm\UnityEngine.UI.ref.dll_FAE6DBEA21006BE5.mvfrm
Library\Bee\artifacts\mvdfrm\UnityEngine.AccessibilityModule.dll_B21E757AA3F4D39E.mvfrm
Library\Bee\artifacts\mvdfrm\UnityEngine.AIModule.dll_DD07CC31A2F66A7C.mvfrm
Library\Bee\artifacts\mvdfrm\UnityEngine.AndroidJNIModule.dll_EDBAD27048EE6E3A.mvfrm
Library\Bee\artifacts\mvdfrm\UnityEngine.AnimationModule.dll_9FA996AC99869AC4.mvfrm
Library\Bee\artifacts\mvdfrm\UnityEngine.ARModule.dll_967A91350013C945.mvfrm
Library\Bee\artifacts\mvdfrm\UnityEngine.AssetBundleModule.dll_E90998DCF3CD7272.mvfrm
Library\Bee\artifacts\mvdfrm\UnityEngine.AudioModule.dll_5EB87FD1EFC5AAB6.mvfrm
Library\Bee\artifacts\mvdfrm\UnityEngine.ClothModule.dll_C5A0DCCCC9E2899A.mvfrm
Library\Bee\artifacts\mvdfrm\UnityEngine.ClusterInputModule.dll_E568B55DBD8846A4.mvfrm
Library\Bee\artifacts\mvdfrm\UnityEngine.ClusterRendererModule.dll_2C80EBF130610A9D.mvfrm
Library\Bee\artifacts\mvdfrm\UnityEngine.CoreModule.dll_3CBB8C028A109C53.mvfrm
Library\Bee\artifacts\mvdfrm\UnityEngine.CrashReportingModule.dll_23D2232DC5F8A1CB.mvfrm
Library\Bee\artifacts\mvdfrm\UnityEngine.DirectorModule.dll_B9B6D470CC5FE730.mvfrm
Library\Bee\artifacts\mvdfrm\UnityEngine.dll_39790E4DCE1F3CD2.mvfrm
Library\Bee\artifacts\mvdfrm\UnityEngine.DSPGraphModule.dll_BF0835DA3EC0B851.mvfrm
Library\Bee\artifacts\mvdfrm\UnityEngine.GameCenterModule.dll_18081C8B0F2F5F2B.mvfrm
Library\Bee\artifacts\mvdfrm\UnityEngine.GIModule.dll_7544153F3EA55296.mvfrm
Library\Bee\artifacts\mvdfrm\UnityEngine.GridModule.dll_1A2CA7F0A265324A.mvfrm
Library\Bee\artifacts\mvdfrm\UnityEngine.HotReloadModule.dll_20F254B274B9B646.mvfrm
Library\Bee\artifacts\mvdfrm\UnityEngine.ImageConversionModule.dll_9872E9A1B285C291.mvfrm
Library\Bee\artifacts\mvdfrm\UnityEngine.IMGUIModule.dll_97181F38B5F73E97.mvfrm
Library\Bee\artifacts\mvdfrm\UnityEngine.InputLegacyModule.dll_7A4EB3FB8BBF2863.mvfrm
Library\Bee\artifacts\mvdfrm\UnityEngine.InputModule.dll_C52E478265FDCF5A.mvfrm
Library\Bee\artifacts\mvdfrm\UnityEngine.JSONSerializeModule.dll_1235FEB6A3303428.mvfrm
Library\Bee\artifacts\mvdfrm\UnityEngine.LocalizationModule.dll_23B57FB05504399D.mvfrm
Library\Bee\artifacts\mvdfrm\UnityEngine.ParticleSystemModule.dll_76E46C7A340A2D59.mvfrm
Library\Bee\artifacts\mvdfrm\UnityEngine.PerformanceReportingModule.dll_AADEF5F6C6634412.mvfrm
Library\Bee\artifacts\mvdfrm\UnityEngine.Physics2DModule.dll_EC4F869D3A839259.mvfrm
Library\Bee\artifacts\mvdfrm\UnityEngine.PhysicsModule.dll_E7291BFFDDE36847.mvfrm
Library\Bee\artifacts\mvdfrm\UnityEngine.ProfilerModule.dll_EBFD0DA765B96E3D.mvfrm
Library\Bee\artifacts\mvdfrm\UnityEngine.RuntimeInitializeOnLoadManagerInitializerModule.dll_41D82973943F3522.mvfrm
Library\Bee\artifacts\mvdfrm\UnityEngine.ScreenCaptureModule.dll_2C1DAC3BB79C608A.mvfrm
Library\Bee\artifacts\mvdfrm\UnityEngine.SharedInternalsModule.dll_1C84287729B3BDE1.mvfrm
Library\Bee\artifacts\mvdfrm\UnityEngine.SpriteMaskModule.dll_01348F1B309EF4A5.mvfrm
Library\Bee\artifacts\mvdfrm\UnityEngine.SpriteShapeModule.dll_026AC637A96FAA7C.mvfrm
Library\Bee\artifacts\mvdfrm\UnityEngine.StreamingModule.dll_543E83FCE90E5202.mvfrm
Library\Bee\artifacts\mvdfrm\UnityEngine.SubstanceModule.dll_30E9984634615010.mvfrm
Library\Bee\artifacts\mvdfrm\UnityEngine.SubsystemsModule.dll_6BE1F57CFEE6DCB8.mvfrm
Library\Bee\artifacts\mvdfrm\UnityEngine.TerrainModule.dll_016F976EB3A1B135.mvfrm
Library\Bee\artifacts\mvdfrm\UnityEngine.TerrainPhysicsModule.dll_775F154D4D4D27E6.mvfrm
Library\Bee\artifacts\mvdfrm\UnityEngine.TextCoreFontEngineModule.dll_6CF50FF126CAD471.mvfrm
Library\Bee\artifacts\mvdfrm\UnityEngine.TextCoreTextEngineModule.dll_B4DD4662B64E8D8F.mvfrm
Library\Bee\artifacts\mvdfrm\UnityEngine.TextRenderingModule.dll_555D1E466ED3E07F.mvfrm
Library\Bee\artifacts\mvdfrm\UnityEngine.TilemapModule.dll_A06BFEEFCB5E923E.mvfrm
Library\Bee\artifacts\mvdfrm\UnityEngine.TLSModule.dll_E55B4D6517FBCF5B.mvfrm
Library\Bee\artifacts\mvdfrm\UnityEngine.UIElementsModule.dll_702056E5021318AF.mvfrm
Library\Bee\artifacts\mvdfrm\UnityEngine.UIElementsNativeModule.dll_41AD4104F53D6CA6.mvfrm
Library\Bee\artifacts\mvdfrm\UnityEngine.UIModule.dll_D87B6A5EFF3D7028.mvfrm
Library\Bee\artifacts\mvdfrm\UnityEngine.UmbraModule.dll_D98D2BEA7CEC5629.mvfrm
Library\Bee\artifacts\mvdfrm\UnityEngine.UNETModule.dll_CF61D3EBD71F91CC.mvfrm
Library\Bee\artifacts\mvdfrm\UnityEngine.UnityAnalyticsModule.dll_9683DD43E0317F55.mvfrm
Library\Bee\artifacts\mvdfrm\UnityEngine.UnityConnectModule.dll_532BC45706887489.mvfrm
Library\Bee\artifacts\mvdfrm\UnityEngine.UnityCurlModule.dll_D2C637DE099A8CB1.mvfrm
Library\Bee\artifacts\mvdfrm\UnityEngine.UnityTestProtocolModule.dll_FD1BBE7472BBF99F.mvfrm
Library\Bee\artifacts\mvdfrm\UnityEngine.UnityWebRequestAssetBundleModule.dll_330E45418A8D99E6.mvfrm
Library\Bee\artifacts\mvdfrm\UnityEngine.UnityWebRequestAudioModule.dll_22DB49D54CCE0EAA.mvfrm
Library\Bee\artifacts\mvdfrm\UnityEngine.UnityWebRequestModule.dll_AA11F14BBD7A5D10.mvfrm
Library\Bee\artifacts\mvdfrm\UnityEngine.UnityWebRequestTextureModule.dll_54DE238103097DBF.mvfrm
Library\Bee\artifacts\mvdfrm\UnityEngine.UnityWebRequestWWWModule.dll_7F9F8BBEA60E49FB.mvfrm
Library\Bee\artifacts\mvdfrm\UnityEngine.VehiclesModule.dll_3179CDF04689B6CB.mvfrm
Library\Bee\artifacts\mvdfrm\UnityEngine.VFXModule.dll_6639E5D3EE6938C8.mvfrm
Library\Bee\artifacts\mvdfrm\UnityEngine.VideoModule.dll_83C2043CB257C65B.mvfrm
Library\Bee\artifacts\mvdfrm\UnityEngine.VirtualTexturingModule.dll_6639F573CDEBED31.mvfrm
Library\Bee\artifacts\mvdfrm\UnityEngine.VRModule.dll_2B4D90E4A0F7F5A0.mvfrm
Library\Bee\artifacts\mvdfrm\UnityEngine.WindModule.dll_B30A672B1B471ABC.mvfrm
Library\Bee\artifacts\mvdfrm\UnityEngine.XRModule.dll_5E0C53E92A3242FE.mvfrm
Library\Bee\artifacts\mvdfrm\Unity.Burst.Cecil.dll_5AFA7F4DEC9183E4.mvfrm
Library\Bee\artifacts\mvdfrm\Unity.Burst.Cecil.Mdb.dll_F31966F4B2C8A021.mvfrm
Library\Bee\artifacts\mvdfrm\Unity.Burst.Cecil.Pdb.dll_0A6BDF64317DA1A4.mvfrm
Library\Bee\artifacts\mvdfrm\Unity.Burst.Cecil.Rocks.dll_A7EA60F2E4247E44.mvfrm
Library\Bee\artifacts\mvdfrm\Unity.Burst.Unsafe.dll_E71B98D8378ECB6F.mvfrm
Library\Bee\artifacts\mvdfrm\Unity.VisualScripting.Antlr3.Runtime.dll_08C30FBFE479C5B3.mvfrm