Library\Bee\artifacts\mvdfrm\UnityEditor.TestRunner.ref.dll_193EC4CE382CBFB3.mvfrm
Library\Bee\artifacts\mvdfrm\UnityEditor.UI.ref.dll_4C98D3F7040CD4F5.mvfrm
Library\Bee\artifacts\mvdfrm\UnityEngine.TestRunner.ref.dll_E55D0F7C63F01D9E.mvfrm
Library\Bee\artifacts\mvdfrm\UnityEngine.UI.ref.dll_08FEAA520A2EFD60.mvfrm
Library\Bee\artifacts\mvdfrm\UnityEditor.Graphs.dll_9E4AC666C0D1AA38.mvfrm
Library\Bee\artifacts\mvdfrm\UnityEditor.CoreModule.dll_416B4E45B18CA606.mvfrm
Library\Bee\artifacts\mvdfrm\UnityEditor.DeviceSimulatorModule.dll_6E81A2361677709B.mvfrm
Library\Bee\artifacts\mvdfrm\UnityEditor.DiagnosticsModule.dll_29975E42869D8429.mvfrm
Library\Bee\artifacts\mvdfrm\UnityEditor.dll_FB775416E4DEE4AF.mvfrm
Library\Bee\artifacts\mvdfrm\UnityEditor.GraphViewModule.dll_37186E52C8DE3CE0.mvfrm
Library\Bee\artifacts\mvdfrm\UnityEditor.PackageManagerUIModule.dll_453DCAF0AA11E7E2.mvfrm
Library\Bee\artifacts\mvdfrm\UnityEditor.QuickSearchModule.dll_B4A6DF4FDF748082.mvfrm
Library\Bee\artifacts\mvdfrm\UnityEditor.SceneTemplateModule.dll_6A41DB05C9A5C343.mvfrm
Library\Bee\artifacts\mvdfrm\UnityEditor.TextCoreFontEngineModule.dll_1F86A58D37D038C4.mvfrm
Library\Bee\artifacts\mvdfrm\UnityEditor.TextCoreTextEngineModule.dll_676EDBFEC753F1E2.mvfrm
Library\Bee\artifacts\mvdfrm\UnityEditor.UIBuilderModule.dll_8BA11B6F3B96B614.mvfrm
Library\Bee\artifacts\mvdfrm\UnityEditor.UIElementsModule.dll_F5D3856571361382.mvfrm
Library\Bee\artifacts\mvdfrm\UnityEditor.UIElementsSamplesModule.dll_7089A2E3CDBE7C0B.mvfrm
Library\Bee\artifacts\mvdfrm\UnityEditor.UIServiceModule.dll_C4932CD224CE062E.mvfrm
Library\Bee\artifacts\mvdfrm\UnityEditor.UnityConnectModule.dll_F898AEDFE88E57BC.mvfrm
Library\Bee\artifacts\mvdfrm\UnityEngine.AccessibilityModule.dll_9CE7469CCA1BEAE0.mvfrm
Library\Bee\artifacts\mvdfrm\UnityEngine.AIModule.dll_F813B68C1508EF9A.mvfrm
Library\Bee\artifacts\mvdfrm\UnityEngine.AndroidJNIModule.dll_741C6E38BA558258.mvfrm
Library\Bee\artifacts\mvdfrm\UnityEngine.AnimationModule.dll_059DEA7BA33B1186.mvfrm
Library\Bee\artifacts\mvdfrm\UnityEngine.ARModule.dll_B1867B8F72264E63.mvfrm
Library\Bee\artifacts\mvdfrm\UnityEngine.AssetBundleModule.dll_F890124141DB3574.mvfrm
Library\Bee\artifacts\mvdfrm\UnityEngine.AudioModule.dll_925B38616963A0F8.mvfrm
Library\Bee\artifacts\mvdfrm\UnityEngine.ClothModule.dll_F943955C43807FDC.mvfrm
Library\Bee\artifacts\mvdfrm\UnityEngine.ClusterInputModule.dll_783523F59A162A82.mvfrm
Library\Bee\artifacts\mvdfrm\UnityEngine.ClusterRendererModule.dll_742E64A786327E1F.mvfrm
Library\Bee\artifacts\mvdfrm\UnityEngine.CoreModule.dll_648C219859921131.mvfrm
Library\Bee\artifacts\mvdfrm\UnityEngine.CrashReportingModule.dll_33D531B3B348CD69.mvfrm
Library\Bee\artifacts\mvdfrm\UnityEngine.DirectorModule.dll_181D5820937CA38E.mvfrm
Library\Bee\artifacts\mvdfrm\UnityEngine.dll_2E1B9AEF43527194.mvfrm
Library\Bee\artifacts\mvdfrm\UnityEngine.DSPGraphModule.dll_1D6EB98A05DD74AF.mvfrm
Library\Bee\artifacts\mvdfrm\UnityEngine.GameCenterModule.dll_9E69B85380967349.mvfrm
Library\Bee\artifacts\mvdfrm\UnityEngine.GIModule.dll_904FFF99B0B7D7B4.mvfrm
Library\Bee\artifacts\mvdfrm\UnityEngine.GridModule.dll_41FD3D8671E6A728.mvfrm
Library\Bee\artifacts\mvdfrm\UnityEngine.HotReloadModule.dll_86E6A8817E6E2D08.mvfrm
Library\Bee\artifacts\mvdfrm\UnityEngine.ImageConversionModule.dll_E020625808573613.mvfrm
Library\Bee\artifacts\mvdfrm\UnityEngine.IMGUIModule.dll_CABAD7C82F9534D9.mvfrm
Library\Bee\artifacts\mvdfrm\UnityEngine.InputLegacyModule.dll_89D52D5FD9CCEB65.mvfrm
Library\Bee\artifacts\mvdfrm\UnityEngine.InputModule.dll_F8D10011DF9BC59C.mvfrm
Library\Bee\artifacts\mvdfrm\UnityEngine.JSONSerializeModule.dll_FCFECFD8C9574B6A.mvfrm
Library\Bee\artifacts\mvdfrm\UnityEngine.LocalizationModule.dll_B681EE4831921D7B.mvfrm
Library\Bee\artifacts\mvdfrm\UnityEngine.NVIDIAModule.dll_10F4BC9E3AFDC5BD.mvfrm
Library\Bee\artifacts\mvdfrm\UnityEngine.ParticleSystemModule.dll_86E77B00215A58F7.mvfrm
Library\Bee\artifacts\mvdfrm\UnityEngine.PerformanceReportingModule.dll_FA5791BB5F3516F0.mvfrm
Library\Bee\artifacts\mvdfrm\UnityEngine.Physics2DModule.dll_5243DA6C4438091B.mvfrm
Library\Bee\artifacts\mvdfrm\UnityEngine.PhysicsModule.dll_4C0AC5BE434D9AC9.mvfrm
Library\Bee\artifacts\mvdfrm\UnityEngine.ProfilerModule.dll_4A6391572CD62A9B.mvfrm
Library\Bee\artifacts\mvdfrm\UnityEngine.RuntimeInitializeOnLoadManagerInitializerModule.dll_2BE8C69FD23C2FE4.mvfrm
Library\Bee\artifacts\mvdfrm\UnityEngine.ScreenCaptureModule.dll_16E67D5DDDC377CC.mvfrm
Library\Bee\artifacts\mvdfrm\UnityEngine.SharedInternalsModule.dll_6431A12D7F853163.mvfrm
Library\Bee\artifacts\mvdfrm\UnityEngine.SpriteMaskModule.dll_87962AE3A20608C3.mvfrm
Library\Bee\artifacts\mvdfrm\UnityEngine.SpriteShapeModule.dll_11F13F9BF77D6D7E.mvfrm
Library\Bee\artifacts\mvdfrm\UnityEngine.StreamingModule.dll_BA32D7CBF2C2C8C4.mvfrm
Library\Bee\artifacts\mvdfrm\UnityEngine.SubstanceModule.dll_96DDEC153E15C6D2.mvfrm
Library\Bee\artifacts\mvdfrm\UnityEngine.SubsystemsModule.dll_F2439145704DF0D6.mvfrm
Library\Bee\artifacts\mvdfrm\UnityEngine.TerrainModule.dll_6651412D190BE3B7.mvfrm
Library\Bee\artifacts\mvdfrm\UnityEngine.TerrainPhysicsModule.dll_876223D33A9D5384.mvfrm
Library\Bee\artifacts\mvdfrm\UnityEngine.TextCoreFontEngineModule.dll_9DE620E04ACDF78F.mvfrm
Library\Bee\artifacts\mvdfrm\UnityEngine.TextCoreTextEngineModule.dll_E5CE5751DA51B0AD.mvfrm
Library\Bee\artifacts\mvdfrm\UnityEngine.TextRenderingModule.dll_4025EF6894FAF7C1.mvfrm
Library\Bee\artifacts\mvdfrm\UnityEngine.TilemapModule.dll_054DA8AE30C8C4C0.mvfrm
Library\Bee\artifacts\mvdfrm\UnityEngine.TLSModule.dll_A37EB36D3EDA915D.mvfrm
Library\Bee\artifacts\mvdfrm\UnityEngine.UaaLAnalyticsModule.dll_8AD11F386F0BE2F1.mvfrm
Library\Bee\artifacts\mvdfrm\UnityEngine.UIElementsModule.dll_F681F2AD737A2CCD.mvfrm
Library\Bee\artifacts\mvdfrm\UnityEngine.UIElementsNativeModule.dll_8FB77F861B8A5804.mvfrm
Library\Bee\artifacts\mvdfrm\UnityEngine.UIModule.dll_F38754B9714FF546.mvfrm
Library\Bee\artifacts\mvdfrm\UnityEngine.UmbraModule.dll_0D2FE479F68A4C6B.mvfrm
Library\Bee\artifacts\mvdfrm\UnityEngine.UNETModule.dll_F7326981A6A106AA.mvfrm
Library\Bee\artifacts\mvdfrm\UnityEngine.UnityAnalyticsModule.dll_A686EBC9CD81AAF3.mvfrm
Library\Bee\artifacts\mvdfrm\UnityEngine.UnityConnectModule.dll_E5F832EEE3165867.mvfrm
Library\Bee\artifacts\mvdfrm\UnityEngine.UnityCurlModule.dll_38BA8BAD134F0373.mvfrm
Library\Bee\artifacts\mvdfrm\UnityEngine.UnityTestProtocolModule.dll_2C4C58D627B9D161.mvfrm
Library\Bee\artifacts\mvdfrm\UnityEngine.UnityWebRequestAssetBundleModule.dll_189BE6EE38344C04.mvfrm
Library\Bee\artifacts\mvdfrm\UnityEngine.UnityWebRequestAudioModule.dll_7253E599E59FE188.mvfrm
Library\Bee\artifacts\mvdfrm\UnityEngine.UnityWebRequestModule.dll_F1BF6A02134BD092.mvfrm
Library\Bee\artifacts\mvdfrm\UnityEngine.UnityWebRequestTextureModule.dll_0282DD35CC01785D.mvfrm
Library\Bee\artifacts\mvdfrm\UnityEngine.UnityWebRequestWWWModule.dll_B0909CADCA116D19.mvfrm
Library\Bee\artifacts\mvdfrm\UnityEngine.VehiclesModule.dll_8FE051A00DA67329.mvfrm
Library\Bee\artifacts\mvdfrm\UnityEngine.VFXModule.dll_245D4BDC1547FACA.mvfrm
Library\Bee\artifacts\mvdfrm\UnityEngine.VideoModule.dll_B764BCCC2BF5BC9D.mvfrm
Library\Bee\artifacts\mvdfrm\UnityEngine.VirtualTexturingModule.dll_B44433F4F438D88F.mvfrm
Library\Bee\artifacts\mvdfrm\UnityEngine.VRModule.dll_46597B3F130A7ABE.mvfrm
Library\Bee\artifacts\mvdfrm\UnityEngine.WindModule.dll_DADAFCC0EAC88F9A.mvfrm
Library\Bee\artifacts\mvdfrm\UnityEngine.XRModule.dll_79183E439C44C81C.mvfrm
Library\Bee\artifacts\mvdfrm\UnityEditor.WindowsStandalone.Extensions.dll_D6C7B4DD1E5E01FA.mvfrm
Library\Bee\artifacts\mvdfrm\Unity.Burst.Cecil.dll_5AFA7F4DEC9183E4.mvfrm
Library\Bee\artifacts\mvdfrm\Unity.Burst.Cecil.Mdb.dll_F31966F4B2C8A021.mvfrm
Library\Bee\artifacts\mvdfrm\Unity.Burst.Cecil.Pdb.dll_0A6BDF64317DA1A4.mvfrm
Library\Bee\artifacts\mvdfrm\Unity.Burst.Cecil.Rocks.dll_A7EA60F2E4247E44.mvfrm
Library\Bee\artifacts\mvdfrm\Unity.Burst.Unsafe.dll_E71B98D8378ECB6F.mvfrm
Library\Bee\artifacts\mvdfrm\Unity.Plastic.Antlr3.Runtime.dll_862BAC7130128FF5.mvfrm
Library\Bee\artifacts\mvdfrm\Unity.Plastic.Newtonsoft.Json.dll_DF3479357A17CF70.mvfrm
Library\Bee\artifacts\mvdfrm\Unity.VisualScripting.IonicZip.dll_28FBDDF3C1C6E368.mvfrm
Library\Bee\artifacts\mvdfrm\Unity.VisualScripting.YamlDotNet.dll_5755E8DEB3B0B594.mvfrm
Library\Bee\artifacts\mvdfrm\Unity.VisualScripting.Antlr3.Runtime.dll_08C30FBFE479C5B3.mvfrm